[
    {
        "name": "Automatically mute ads",
        "tooltip": "Automatically mute ads",
        "type": "bool",
        "default": false,
        "key": "muteAds"
    },
    {
        "name": "Automatically skip adds",
        "tooltip": "Automatically skip ads after 5 seconds",
        "type": "bool",
        "default": false,
        "key": "skipAds"
    },
    {
        "name": "Automatically close the bottom banner ads",
        "tooltip": "Automatically close the ads at the bottom of the video",
        "type": "bool",
        "default": false,
        "key": "closePopupAds"
    }
]
